-- Merging decision tree log ---
manifest
ADDED from C:\Users\NBIT02\Desktop\Tecsq_GeoIntel\app\src\main\AndroidManifest.xml:2:1-150:12
	package
		ADDED from C:\Users\NBIT02\Desktop\Tecsq_GeoIntel\app\src\main\AndroidManifest.xml:3:5-33
		INJECTED from C:\Users\NBIT02\Desktop\Tecsq_GeoIntel\app\src\main\AndroidManifest.xml
		INJECTED from C:\Users\NBIT02\Desktop\Tecsq_GeoIntel\app\src\main\AndroidManifest.xml
	android:versionName
		ADDED from C:\Users\NBIT02\Desktop\Tecsq_GeoIntel\app\src\main\AndroidManifest.xml:5:5-30
		INJECTED from C:\Users\NBIT02\Desktop\Tecsq_GeoIntel\app\src\main\AndroidManifest.xml
		INJECTED from C:\Users\NBIT02\Desktop\Tecsq_GeoIntel\app\src\main\AndroidManifest.xml
	android:versionCode
		ADDED from C:\Users\NBIT02\Desktop\Tecsq_GeoIntel\app\src\main\AndroidManifest.xml:4:5-28
		INJECTED from C:\Users\NBIT02\Desktop\Tecsq_GeoIntel\app\src\main\AndroidManifest.xml
		INJECTED from C:\Users\NBIT02\Desktop\Tecsq_GeoIntel\app\src\main\AndroidManifest.xml
	xmlns:android
		ADDED from C:\Users\NBIT02\Desktop\Tecsq_GeoIntel\app\src\main\AndroidManifest.xml:2:11-69
uses-sdk
ADDED from C:\Users\NBIT02\Desktop\Tecsq_GeoIntel\app\src\main\AndroidManifest.xml:7:5-9:41
MERGED from [com.google.firebase:firebase-storage:10.0.1] C:\Users\NBIT02\.android\build-cache\589517df9bd061c17e98fbd7eaf725c361a08bf5\output\AndroidManifest.xml:3:5-42
MERGED from [com.google.firebase:firebase-storage-common:10.0.1] C:\Users\NBIT02\.android\build-cache\5535a69ffde142bb04804888fc0335aa571310dd\output\AndroidManifest.xml:3:5-42
MERGED from [com.google.firebase:firebase-auth:10.0.1] C:\Users\NBIT02\.android\build-cache\b503def4f2e65d2d1da51a117ef17ba4dd273191\output\AndroidManifest.xml:17:5-42
MERGED from [com.google.android.gms:play-services-base:10.0.1] C:\Users\NBIT02\.android\build-cache\481f62424972e603abd130b2a3bd13b150f3cbeb\output\AndroidManifest.xml:17:5-42
MERGED from [com.google.firebase:firebase-database:10.0.1] C:\Users\NBIT02\.android\build-cache\ed64b182108acb661b5dae35ea935e5ea39a0ee6\output\AndroidManifest.xml:3:5-42
MERGED from [com.google.firebase:firebase-database-connection:10.0.1] C:\Users\NBIT02\.android\build-cache\f63884f6013a1f14023133a255a5199ef0f61386\output\AndroidManifest.xml:3:5-42
MERGED from [com.afollestad.material-dialogs:core:0.9.3.0] C:\Users\NBIT02\.android\build-cache\9ebce081dc8d33a91b0222c2d77070a4e5c8ffc5\output\AndroidManifest.xml:8:5-11:75
MERGED from [com.android.support:support-v13:25.1.1] C:\Users\NBIT02\.android\build-cache\8cccf28d4662c017a263f3bd6e1c8d97a7b4c3bb\output\AndroidManifest.xml:21:5-23:55
MERGED from [com.android.support:recyclerview-v7:25.1.1] C:\Users\NBIT02\.android\build-cache\09109377f77a9a4526b9a142503cfc16002a761b\output\AndroidManifest.xml:20:5-43
MERGED from [me.zhanghai.android.materialprogressbar:library:1.3.0] C:\Users\NBIT02\.android\build-cache\2152b08c40aece5f967d8831ab1829b8039ff71a\output\AndroidManifest.xml:12:5-14:41
MERGED from [com.android.support:appcompat-v7:25.1.1] C:\Users\NBIT02\.android\build-cache\f92b38a4405c23bddc29bde7270db2e1828c6832\output\AndroidManifest.xml:21:5-23:78
MERGED from [com.android.support:animated-vector-drawable:25.1.1] C:\Users\NBIT02\.android\build-cache\34635960fd59ff0fe27121a25dff1e58aceb2b96\output\AndroidManifest.xml:20:5-44
MERGED from [com.android.support:support-vector-drawable:25.1.1] C:\Users\NBIT02\.android\build-cache\58947765328182301337883fc69777b6eec91e2a\output\AndroidManifest.xml:21:5-43
MERGED from [com.google.firebase:firebase-core:10.0.1] C:\Users\NBIT02\.android\build-cache\526fd828782302ab47f8946cb4c82d9b8914c322\output\AndroidManifest.xml:4:5-42
MERGED from [com.google.firebase:firebase-analytics:10.0.1] C:\Users\NBIT02\.android\build-cache\f6a01542613177350a2ee9e4bd8eb27c5194554f\output\AndroidManifest.xml:17:5-42
MERGED from [com.google.firebase:firebase-analytics-impl:10.0.1] C:\Users\NBIT02\.android\build-cache\2a2dd5bc308708a70d7b56c09c6f9e6d238f297b\output\AndroidManifest.xml:17:5-42
MERGED from [com.google.firebase:firebase-iid:10.0.1] C:\Users\NBIT02\.android\build-cache\a6c4472e0ce62e0c2b82459dce65c276bfb64e90\output\AndroidManifest.xml:17:5-42
MERGED from [com.google.firebase:firebase-common:10.0.1] C:\Users\NBIT02\.android\build-cache\64db97b0aba93474415b1181b3c83913d3d0bddb\output\AndroidManifest.xml:3:5-42
MERGED from [com.google.android.gms:play-services-tasks:10.0.1] C:\Users\NBIT02\.android\build-cache\a1975e952a6ed5c1e58818a36abf20f798fb742b\output\AndroidManifest.xml:3:5-42
MERGED from [com.google.android.gms:play-services-basement:10.0.1] C:\Users\NBIT02\.android\build-cache\0dd876444ffe7fa3c583b19d88e7882201bfb24a\output\AndroidManifest.xml:17:5-42
MERGED from [com.android.support:support-v4:25.1.1] C:\Users\NBIT02\.android\build-cache\e8c196438ab72568a073d2c6fe1a546d1ecf32d7\output\AndroidManifest.xml:21:5-23:54
MERGED from [com.android.support:support-fragment:25.1.1] C:\Users\NBIT02\.android\build-cache\8b34848c6b8ff3101f6c0e7ea4d1edcf6ae69b07\output\AndroidManifest.xml:21:5-23:60
MERGED from [com.android.support:support-media-compat:25.1.1] C:\Users\NBIT02\.android\build-cache\0985c86dff365200bf416fd36c4a31617d291501\output\AndroidManifest.xml:21:5-23:63
MERGED from [com.android.support:support-core-ui:25.1.1] C:\Users\NBIT02\.android\build-cache\210417865418f2dc44dbb24aec0c1b427ac7f198\output\AndroidManifest.xml:21:5-23:58
MERGED from [com.android.support:support-core-utils:25.1.1] C:\Users\NBIT02\.android\build-cache\78526b3eae82b44f1465868dd7fc622c768c0292\output\AndroidManifest.xml:21:5-23:61
MERGED from [com.android.support:support-compat:25.1.1] C:\Users\NBIT02\.android\build-cache\f3ddc28fc913ec4ff648a437c1efc518cb787905\output\AndroidManifest.xml:21:5-23:58
	tools:overrideLibrary
		ADDED from [com.afollestad.material-dialogs:core:0.9.3.0] C:\Users\NBIT02\.android\build-cache\9ebce081dc8d33a91b0222c2d77070a4e5c8ffc5\output\AndroidManifest.xml:11:9-72
	android:targetSdkVersion
		ADDED from C:\Users\NBIT02\Desktop\Tecsq_GeoIntel\app\src\main\AndroidManifest.xml:9:9-38
		INJECTED from C:\Users\NBIT02\Desktop\Tecsq_GeoIntel\app\src\main\AndroidManifest.xml
		INJECTED from C:\Users\NBIT02\Desktop\Tecsq_GeoIntel\app\src\main\AndroidManifest.xml
	android:minSdkVersion
		ADDED from C:\Users\NBIT02\Desktop\Tecsq_GeoIntel\app\src\main\AndroidManifest.xml:8:9-35
		INJECTED from C:\Users\NBIT02\Desktop\Tecsq_GeoIntel\app\src\main\AndroidManifest.xml
		INJECTED from C:\Users\NBIT02\Desktop\Tecsq_GeoIntel\app\src\main\AndroidManifest.xml
uses-permission#android.permission.ACCESS_WIFI_STATE
ADDED from C:\Users\NBIT02\Desktop\Tecsq_GeoIntel\app\src\main\AndroidManifest.xml:11:5-76
	android:name
		ADDED from C:\Users\NBIT02\Desktop\Tecsq_GeoIntel\app\src\main\AndroidManifest.xml:11:22-73
uses-permission#android.permission.WRITE_EXTERNAL_STORAGE
ADDED from C:\Users\NBIT02\Desktop\Tecsq_GeoIntel\app\src\main\AndroidManifest.xml:12:5-81
	android:name
		ADDED from C:\Users\NBIT02\Desktop\Tecsq_GeoIntel\app\src\main\AndroidManifest.xml:12:22-78
uses-permission#android.permission.READ_EXTERNAL_STORAGE
ADDED from C:\Users\NBIT02\Desktop\Tecsq_GeoIntel\app\src\main\AndroidManifest.xml:13:2-77
	android:name
		ADDED from C:\Users\NBIT02\Desktop\Tecsq_GeoIntel\app\src\main\AndroidManifest.xml:13:19-74
uses-permission#android.permission.ACCESS_FINE_LOCATION
ADDED from C:\Users\NBIT02\Desktop\Tecsq_GeoIntel\app\src\main\AndroidManifest.xml:14:2-76
	android:name
		ADDED from C:\Users\NBIT02\Desktop\Tecsq_GeoIntel\app\src\main\AndroidManifest.xml:14:19-73
uses-permission#android.permission.READ_PHONE_STATE
ADDED from C:\Users\NBIT02\Desktop\Tecsq_GeoIntel\app\src\main\AndroidManifest.xml:15:2-71
	android:name
		ADDED from C:\Users\NBIT02\Desktop\Tecsq_GeoIntel\app\src\main\AndroidManifest.xml:15:19-69
uses-permission#android.permission.INTERNET
ADDED from C:\Users\NBIT02\Desktop\Tecsq_GeoIntel\app\src\main\AndroidManifest.xml:16:5-66
MERGED from [com.google.firebase:firebase-analytics:10.0.1] C:\Users\NBIT02\.android\build-cache\f6a01542613177350a2ee9e4bd8eb27c5194554f\output\AndroidManifest.xml:20:5-66
MERGED from [com.google.firebase:firebase-analytics-impl:10.0.1] C:\Users\NBIT02\.android\build-cache\2a2dd5bc308708a70d7b56c09c6f9e6d238f297b\output\AndroidManifest.xml:20:5-66
MERGED from [com.google.firebase:firebase-iid:10.0.1] C:\Users\NBIT02\.android\build-cache\a6c4472e0ce62e0c2b82459dce65c276bfb64e90\output\AndroidManifest.xml:20:5-66
	android:name
		ADDED from C:\Users\NBIT02\Desktop\Tecsq_GeoIntel\app\src\main\AndroidManifest.xml:16:22-64
uses-permission#android.permission.ACCESS_NETWORK_STATE
ADDED from C:\Users\NBIT02\Desktop\Tecsq_GeoIntel\app\src\main\AndroidManifest.xml:17:5-79
MERGED from [com.google.firebase:firebase-analytics:10.0.1] C:\Users\NBIT02\.android\build-cache\f6a01542613177350a2ee9e4bd8eb27c5194554f\output\AndroidManifest.xml:21:5-78
MERGED from [com.google.firebase:firebase-analytics-impl:10.0.1] C:\Users\NBIT02\.android\build-cache\2a2dd5bc308708a70d7b56c09c6f9e6d238f297b\output\AndroidManifest.xml:21:5-78
MERGED from [com.google.firebase:firebase-iid:10.0.1] C:\Users\NBIT02\.android\build-cache\a6c4472e0ce62e0c2b82459dce65c276bfb64e90\output\AndroidManifest.xml:19:5-78
	android:name
		ADDED from C:\Users\NBIT02\Desktop\Tecsq_GeoIntel\app\src\main\AndroidManifest.xml:17:22-76
uses-permission#android.permission.RECEIVE_BOOT_COMPLETED
ADDED from C:\Users\NBIT02\Desktop\Tecsq_GeoIntel\app\src\main\AndroidManifest.xml:18:2-78
	android:name
		ADDED from C:\Users\NBIT02\Desktop\Tecsq_GeoIntel\app\src\main\AndroidManifest.xml:18:19-75
uses-permission#android.permission.SYSTEM_ALERT_WINDOW
ADDED from C:\Users\NBIT02\Desktop\Tecsq_GeoIntel\app\src\main\AndroidManifest.xml:20:2-74
	android:name
		ADDED from C:\Users\NBIT02\Desktop\Tecsq_GeoIntel\app\src\main\AndroidManifest.xml:20:19-72
uses-permission#android.permission.PROCESS_OUTGOING_CALLS
ADDED from C:\Users\NBIT02\Desktop\Tecsq_GeoIntel\app\src\main\AndroidManifest.xml:21:2-77
	android:name
		ADDED from C:\Users\NBIT02\Desktop\Tecsq_GeoIntel\app\src\main\AndroidManifest.xml:21:19-75
uses-permission#android.permission.PROCESS_INCOMING_CALLS
ADDED from C:\Users\NBIT02\Desktop\Tecsq_GeoIntel\app\src\main\AndroidManifest.xml:22:2-77
	android:name
		ADDED from C:\Users\NBIT02\Desktop\Tecsq_GeoIntel\app\src\main\AndroidManifest.xml:22:19-75
uses-permission#android.permission.ACCESS_COARSE_LOCATION
ADDED from C:\Users\NBIT02\Desktop\Tecsq_GeoIntel\app\src\main\AndroidManifest.xml:23:2-78
	android:name
		ADDED from C:\Users\NBIT02\Desktop\Tecsq_GeoIntel\app\src\main\AndroidManifest.xml:23:19-75
uses-feature#android.hardware.location.gps
ADDED from C:\Users\NBIT02\Desktop\Tecsq_GeoIntel\app\src\main\AndroidManifest.xml:25:2-80
	android:name
		ADDED from C:\Users\NBIT02\Desktop\Tecsq_GeoIntel\app\src\main\AndroidManifest.xml:25:16-60
uses-feature#android.hardware.telephony
ADDED from C:\Users\NBIT02\Desktop\Tecsq_GeoIntel\app\src\main\AndroidManifest.xml:26:3-86
	android:required
		ADDED from C:\Users\NBIT02\Desktop\Tecsq_GeoIntel\app\src\main\AndroidManifest.xml:26:59-83
	android:name
		ADDED from C:\Users\NBIT02\Desktop\Tecsq_GeoIntel\app\src\main\AndroidManifest.xml:26:17-58
supports-screens
ADDED from C:\Users\NBIT02\Desktop\Tecsq_GeoIntel\app\src\main\AndroidManifest.xml:27:3-33:33
	android:largeScreens
		ADDED from C:\Users\NBIT02\Desktop\Tecsq_GeoIntel\app\src\main\AndroidManifest.xml:28:6-33
	android:smallScreens
		ADDED from C:\Users\NBIT02\Desktop\Tecsq_GeoIntel\app\src\main\AndroidManifest.xml:30:6-33
	android:normalScreens
		ADDED from C:\Users\NBIT02\Desktop\Tecsq_GeoIntel\app\src\main\AndroidManifest.xml:29:6-34
	android:xlargeScreens
		ADDED from C:\Users\NBIT02\Desktop\Tecsq_GeoIntel\app\src\main\AndroidManifest.xml:31:6-34
	android:resizeable
		ADDED from C:\Users\NBIT02\Desktop\Tecsq_GeoIntel\app\src\main\AndroidManifest.xml:32:6-31
	android:anyDensity
		ADDED from C:\Users\NBIT02\Desktop\Tecsq_GeoIntel\app\src\main\AndroidManifest.xml:33:6-31
application
ADDED from C:\Users\NBIT02\Desktop\Tecsq_GeoIntel\app\src\main\AndroidManifest.xml:35:5-148:19
MERGED from [com.google.firebase:firebase-auth:10.0.1] C:\Users\NBIT02\.android\build-cache\b503def4f2e65d2d1da51a117ef17ba4dd273191\output\AndroidManifest.xml:19:5-20:19
MERGED from [com.google.android.gms:play-services-base:10.0.1] C:\Users\NBIT02\.android\build-cache\481f62424972e603abd130b2a3bd13b150f3cbeb\output\AndroidManifest.xml:18:5-20:19
MERGED from [com.afollestad.material-dialogs:core:0.9.3.0] C:\Users\NBIT02\.android\build-cache\9ebce081dc8d33a91b0222c2d77070a4e5c8ffc5\output\AndroidManifest.xml:13:5-20
MERGED from [com.android.support:support-v13:25.1.1] C:\Users\NBIT02\.android\build-cache\8cccf28d4662c017a263f3bd6e1c8d97a7b4c3bb\output\AndroidManifest.xml:25:5-20
MERGED from [com.android.support:appcompat-v7:25.1.1] C:\Users\NBIT02\.android\build-cache\f92b38a4405c23bddc29bde7270db2e1828c6832\output\AndroidManifest.xml:25:5-20
MERGED from [com.android.support:animated-vector-drawable:25.1.1] C:\Users\NBIT02\.android\build-cache\34635960fd59ff0fe27121a25dff1e58aceb2b96\output\AndroidManifest.xml:22:5-20
MERGED from [com.android.support:support-vector-drawable:25.1.1] C:\Users\NBIT02\.android\build-cache\58947765328182301337883fc69777b6eec91e2a\output\AndroidManifest.xml:23:5-20
MERGED from [com.google.firebase:firebase-core:10.0.1] C:\Users\NBIT02\.android\build-cache\526fd828782302ab47f8946cb4c82d9b8914c322\output\AndroidManifest.xml:5:5-20
MERGED from [com.google.firebase:firebase-analytics:10.0.1] C:\Users\NBIT02\.android\build-cache\f6a01542613177350a2ee9e4bd8eb27c5194554f\output\AndroidManifest.xml:24:5-33:19
MERGED from [com.google.firebase:firebase-analytics-impl:10.0.1] C:\Users\NBIT02\.android\build-cache\2a2dd5bc308708a70d7b56c09c6f9e6d238f297b\output\AndroidManifest.xml:24:5-28:19
MERGED from [com.google.firebase:firebase-iid:10.0.1] C:\Users\NBIT02\.android\build-cache\a6c4472e0ce62e0c2b82459dce65c276bfb64e90\output\AndroidManifest.xml:28:5-50:19
MERGED from [com.google.firebase:firebase-common:10.0.1] C:\Users\NBIT02\.android\build-cache\64db97b0aba93474415b1181b3c83913d3d0bddb\output\AndroidManifest.xml:4:5-7:19
MERGED from [com.google.android.gms:play-services-tasks:10.0.1] C:\Users\NBIT02\.android\build-cache\a1975e952a6ed5c1e58818a36abf20f798fb742b\output\AndroidManifest.xml:4:5-19
MERGED from [com.google.android.gms:play-services-basement:10.0.1] C:\Users\NBIT02\.android\build-cache\0dd876444ffe7fa3c583b19d88e7882201bfb24a\output\AndroidManifest.xml:19:5-21:19
MERGED from [com.android.support:support-v4:25.1.1] C:\Users\NBIT02\.android\build-cache\e8c196438ab72568a073d2c6fe1a546d1ecf32d7\output\AndroidManifest.xml:25:5-20
MERGED from [com.android.support:support-fragment:25.1.1] C:\Users\NBIT02\.android\build-cache\8b34848c6b8ff3101f6c0e7ea4d1edcf6ae69b07\output\AndroidManifest.xml:25:5-20
MERGED from [com.android.support:support-media-compat:25.1.1] C:\Users\NBIT02\.android\build-cache\0985c86dff365200bf416fd36c4a31617d291501\output\AndroidManifest.xml:25:5-20
MERGED from [com.android.support:support-core-ui:25.1.1] C:\Users\NBIT02\.android\build-cache\210417865418f2dc44dbb24aec0c1b427ac7f198\output\AndroidManifest.xml:25:5-20
MERGED from [com.android.support:support-core-utils:25.1.1] C:\Users\NBIT02\.android\build-cache\78526b3eae82b44f1465868dd7fc622c768c0292\output\AndroidManifest.xml:25:5-20
MERGED from [com.android.support:support-compat:25.1.1] C:\Users\NBIT02\.android\build-cache\f3ddc28fc913ec4ff648a437c1efc518cb787905\output\AndroidManifest.xml:25:5-20
	android:label
		ADDED from C:\Users\NBIT02\Desktop\Tecsq_GeoIntel\app\src\main\AndroidManifest.xml:38:9-41
	android:allowBackup
		ADDED from C:\Users\NBIT02\Desktop\Tecsq_GeoIntel\app\src\main\AndroidManifest.xml:36:9-35
	android:icon
		ADDED from C:\Users\NBIT02\Desktop\Tecsq_GeoIntel\app\src\main\AndroidManifest.xml:37:9-45
	android:theme
		ADDED from C:\Users\NBIT02\Desktop\Tecsq_GeoIntel\app\src\main\AndroidManifest.xml:39:9-40
activity#com.tecsq.geointel.Flash
ADDED from C:\Users\NBIT02\Desktop\Tecsq_GeoIntel\app\src\main\AndroidManifest.xml:40:9-49:20
	android:label
		ADDED from C:\Users\NBIT02\Desktop\Tecsq_GeoIntel\app\src\main\AndroidManifest.xml:43:13-45
	android:excludeFromRecents
		ADDED from C:\Users\NBIT02\Desktop\Tecsq_GeoIntel\app\src\main\AndroidManifest.xml:42:13-46
	android:name
		ADDED from C:\Users\NBIT02\Desktop\Tecsq_GeoIntel\app\src\main\AndroidManifest.xml:41:13-52
intent-filter#android.intent.action.MAIN+android.intent.category.LAUNCHER
ADDED from C:\Users\NBIT02\Desktop\Tecsq_GeoIntel\app\src\main\AndroidManifest.xml:44:13-48:29
action#android.intent.action.MAIN
ADDED from C:\Users\NBIT02\Desktop\Tecsq_GeoIntel\app\src\main\AndroidManifest.xml:45:17-69
	android:name
		ADDED from C:\Users\NBIT02\Desktop\Tecsq_GeoIntel\app\src\main\AndroidManifest.xml:45:25-66
category#android.intent.category.LAUNCHER
ADDED from C:\Users\NBIT02\Desktop\Tecsq_GeoIntel\app\src\main\AndroidManifest.xml:47:17-77
	android:name
		ADDED from C:\Users\NBIT02\Desktop\Tecsq_GeoIntel\app\src\main\AndroidManifest.xml:47:27-74
receiver#com.tecsq.geointel.MyReceiver
ADDED from C:\Users\NBIT02\Desktop\Tecsq_GeoIntel\app\src\main\AndroidManifest.xml:51:3-60:20
	android:name
		ADDED from C:\Users\NBIT02\Desktop\Tecsq_GeoIntel\app\src\main\AndroidManifest.xml:51:13-38
intent-filter#android.intent.action.BOOT_COMPLETED+android.intent.action.NEW_OUTGOING_CALL+android.intent.action.PHONE_STATE+android.net.conn.CONNECTIVITY_CHANGE+com.example.SendBroadcast
ADDED from C:\Users\NBIT02\Desktop\Tecsq_GeoIntel\app\src\main\AndroidManifest.xml:52:13-59:29
action#com.example.SendBroadcast
ADDED from C:\Users\NBIT02\Desktop\Tecsq_GeoIntel\app\src\main\AndroidManifest.xml:53:17-54:26
	android:name
		ADDED from C:\Users\NBIT02\Desktop\Tecsq_GeoIntel\app\src\main\AndroidManifest.xml:53:25-65
action#android.intent.action.BOOT_COMPLETED
ADDED from C:\Users\NBIT02\Desktop\Tecsq_GeoIntel\app\src\main\AndroidManifest.xml:55:5-67
	android:name
		ADDED from C:\Users\NBIT02\Desktop\Tecsq_GeoIntel\app\src\main\AndroidManifest.xml:55:13-64
action#android.net.conn.CONNECTIVITY_CHANGE
ADDED from C:\Users\NBIT02\Desktop\Tecsq_GeoIntel\app\src\main\AndroidManifest.xml:56:5-67
	android:name
		ADDED from C:\Users\NBIT02\Desktop\Tecsq_GeoIntel\app\src\main\AndroidManifest.xml:56:13-64
action#android.intent.action.NEW_OUTGOING_CALL
ADDED from C:\Users\NBIT02\Desktop\Tecsq_GeoIntel\app\src\main\AndroidManifest.xml:57:5-70
	android:name
		ADDED from C:\Users\NBIT02\Desktop\Tecsq_GeoIntel\app\src\main\AndroidManifest.xml:57:13-67
action#android.intent.action.PHONE_STATE
ADDED from C:\Users\NBIT02\Desktop\Tecsq_GeoIntel\app\src\main\AndroidManifest.xml:58:5-64
	android:name
		ADDED from C:\Users\NBIT02\Desktop\Tecsq_GeoIntel\app\src\main\AndroidManifest.xml:58:13-61
activity#com.tecsq.geointel.Geo_Main
ADDED from C:\Users\NBIT02\Desktop\Tecsq_GeoIntel\app\src\main\AndroidManifest.xml:62:9-48
	android:name
		ADDED from C:\Users\NBIT02\Desktop\Tecsq_GeoIntel\app\src\main\AndroidManifest.xml:62:19-45
activity#com.tecsq.geointel.Activation_Act
ADDED from C:\Users\NBIT02\Desktop\Tecsq_GeoIntel\app\src\main\AndroidManifest.xml:63:9-72
	android:name
		ADDED from C:\Users\NBIT02\Desktop\Tecsq_GeoIntel\app\src\main\AndroidManifest.xml:63:19-69
activity#com.tecsq.geointel.GPSSet
ADDED from C:\Users\NBIT02\Desktop\Tecsq_GeoIntel\app\src\main\AndroidManifest.xml:64:9-64
	android:name
		ADDED from C:\Users\NBIT02\Desktop\Tecsq_GeoIntel\app\src\main\AndroidManifest.xml:64:19-61
service#com.amazonaws.mobileconnectors.s3.transferutility.TransferService
ADDED from C:\Users\NBIT02\Desktop\Tecsq_GeoIntel\app\src\main\AndroidManifest.xml:66:9-68:38
	android:enabled
		ADDED from C:\Users\NBIT02\Desktop\Tecsq_GeoIntel\app\src\main\AndroidManifest.xml:68:13-35
	android:name
		ADDED from C:\Users\NBIT02\Desktop\Tecsq_GeoIntel\app\src\main\AndroidManifest.xml:67:13-93
service#com.tecsq.geointel.ServiceMain
ADDED from C:\Users\NBIT02\Desktop\Tecsq_GeoIntel\app\src\main\AndroidManifest.xml:70:9-74:19
	android:enabled
		ADDED from C:\Users\NBIT02\Desktop\Tecsq_GeoIntel\app\src\main\AndroidManifest.xml:72:13-35
	android:exported
		ADDED from C:\Users\NBIT02\Desktop\Tecsq_GeoIntel\app\src\main\AndroidManifest.xml:73:13-36
	android:name
		ADDED from C:\Users\NBIT02\Desktop\Tecsq_GeoIntel\app\src\main\AndroidManifest.xml:71:13-58
service#com.tecsq.geointel.FTPService
ADDED from C:\Users\NBIT02\Desktop\Tecsq_GeoIntel\app\src\main\AndroidManifest.xml:76:9-80:19
	android:enabled
		ADDED from C:\Users\NBIT02\Desktop\Tecsq_GeoIntel\app\src\main\AndroidManifest.xml:78:13-35
	android:exported
		ADDED from C:\Users\NBIT02\Desktop\Tecsq_GeoIntel\app\src\main\AndroidManifest.xml:79:13-36
	android:name
		ADDED from C:\Users\NBIT02\Desktop\Tecsq_GeoIntel\app\src\main\AndroidManifest.xml:77:13-57
service#com.tecsq.geointel.AlarmLogger
ADDED from C:\Users\NBIT02\Desktop\Tecsq_GeoIntel\app\src\main\AndroidManifest.xml:82:9-86:19
	android:enabled
		ADDED from C:\Users\NBIT02\Desktop\Tecsq_GeoIntel\app\src\main\AndroidManifest.xml:84:13-35
	android:exported
		ADDED from C:\Users\NBIT02\Desktop\Tecsq_GeoIntel\app\src\main\AndroidManifest.xml:85:13-36
	android:name
		ADDED from C:\Users\NBIT02\Desktop\Tecsq_GeoIntel\app\src\main\AndroidManifest.xml:83:13-58
service#com.tecsq.geointel.GPSStatus
ADDED from C:\Users\NBIT02\Desktop\Tecsq_GeoIntel\app\src\main\AndroidManifest.xml:88:9-92:19
	android:enabled
		ADDED from C:\Users\NBIT02\Desktop\Tecsq_GeoIntel\app\src\main\AndroidManifest.xml:90:13-35
	android:exported
		ADDED from C:\Users\NBIT02\Desktop\Tecsq_GeoIntel\app\src\main\AndroidManifest.xml:91:13-36
	android:name
		ADDED from C:\Users\NBIT02\Desktop\Tecsq_GeoIntel\app\src\main\AndroidManifest.xml:89:13-56
service#com.tecsq.geointel.GPSSatInfo
ADDED from C:\Users\NBIT02\Desktop\Tecsq_GeoIntel\app\src\main\AndroidManifest.xml:94:9-98:19
	android:enabled
		ADDED from C:\Users\NBIT02\Desktop\Tecsq_GeoIntel\app\src\main\AndroidManifest.xml:96:13-35
	android:exported
		ADDED from C:\Users\NBIT02\Desktop\Tecsq_GeoIntel\app\src\main\AndroidManifest.xml:97:13-36
	android:name
		ADDED from C:\Users\NBIT02\Desktop\Tecsq_GeoIntel\app\src\main\AndroidManifest.xml:95:13-57
service#com.tecsq.geointel.RestartedService
ADDED from C:\Users\NBIT02\Desktop\Tecsq_GeoIntel\app\src\main\AndroidManifest.xml:100:9-104:19
	android:enabled
		ADDED from C:\Users\NBIT02\Desktop\Tecsq_GeoIntel\app\src\main\AndroidManifest.xml:102:13-35
	android:exported
		ADDED from C:\Users\NBIT02\Desktop\Tecsq_GeoIntel\app\src\main\AndroidManifest.xml:103:13-36
	android:name
		ADDED from C:\Users\NBIT02\Desktop\Tecsq_GeoIntel\app\src\main\AndroidManifest.xml:101:13-63
service#com.tecsq.geointel.TurnOffService
ADDED from C:\Users\NBIT02\Desktop\Tecsq_GeoIntel\app\src\main\AndroidManifest.xml:105:9-109:19
	android:enabled
		ADDED from C:\Users\NBIT02\Desktop\Tecsq_GeoIntel\app\src\main\AndroidManifest.xml:107:13-35
	android:exported
		ADDED from C:\Users\NBIT02\Desktop\Tecsq_GeoIntel\app\src\main\AndroidManifest.xml:108:13-36
	android:name
		ADDED from C:\Users\NBIT02\Desktop\Tecsq_GeoIntel\app\src\main\AndroidManifest.xml:106:13-61
service#com.tecsq.geointel.Activation_Checker
ADDED from C:\Users\NBIT02\Desktop\Tecsq_GeoIntel\app\src\main\AndroidManifest.xml:111:9-115:19
	android:enabled
		ADDED from C:\Users\NBIT02\Desktop\Tecsq_GeoIntel\app\src\main\AndroidManifest.xml:113:13-35
	android:exported
		ADDED from C:\Users\NBIT02\Desktop\Tecsq_GeoIntel\app\src\main\AndroidManifest.xml:114:13-36
	android:name
		ADDED from C:\Users\NBIT02\Desktop\Tecsq_GeoIntel\app\src\main\AndroidManifest.xml:112:13-65
service#com.tecsq.geointel.LocationService_Checker
ADDED from C:\Users\NBIT02\Desktop\Tecsq_GeoIntel\app\src\main\AndroidManifest.xml:117:9-121:19
	android:enabled
		ADDED from C:\Users\NBIT02\Desktop\Tecsq_GeoIntel\app\src\main\AndroidManifest.xml:119:13-35
	android:exported
		ADDED from C:\Users\NBIT02\Desktop\Tecsq_GeoIntel\app\src\main\AndroidManifest.xml:120:13-36
	android:name
		ADDED from C:\Users\NBIT02\Desktop\Tecsq_GeoIntel\app\src\main\AndroidManifest.xml:118:13-70
service#com.tecsq.geointel.WebSettingsListener
ADDED from C:\Users\NBIT02\Desktop\Tecsq_GeoIntel\app\src\main\AndroidManifest.xml:123:9-127:19
	android:enabled
		ADDED from C:\Users\NBIT02\Desktop\Tecsq_GeoIntel\app\src\main\AndroidManifest.xml:125:13-35
	android:exported
		ADDED from C:\Users\NBIT02\Desktop\Tecsq_GeoIntel\app\src\main\AndroidManifest.xml:126:13-36
	android:name
		ADDED from C:\Users\NBIT02\Desktop\Tecsq_GeoIntel\app\src\main\AndroidManifest.xml:124:13-66
service#com.tecsq.geointel.StatusSender
ADDED from C:\Users\NBIT02\Desktop\Tecsq_GeoIntel\app\src\main\AndroidManifest.xml:129:9-133:19
	android:enabled
		ADDED from C:\Users\NBIT02\Desktop\Tecsq_GeoIntel\app\src\main\AndroidManifest.xml:131:13-35
	android:exported
		ADDED from C:\Users\NBIT02\Desktop\Tecsq_GeoIntel\app\src\main\AndroidManifest.xml:132:13-36
	android:name
		ADDED from C:\Users\NBIT02\Desktop\Tecsq_GeoIntel\app\src\main\AndroidManifest.xml:130:13-59
service#com.tecsq.geointel.GeoIntelStopper
ADDED from C:\Users\NBIT02\Desktop\Tecsq_GeoIntel\app\src\main\AndroidManifest.xml:135:9-139:19
	android:enabled
		ADDED from C:\Users\NBIT02\Desktop\Tecsq_GeoIntel\app\src\main\AndroidManifest.xml:137:13-35
	android:exported
		ADDED from C:\Users\NBIT02\Desktop\Tecsq_GeoIntel\app\src\main\AndroidManifest.xml:138:13-36
	android:name
		ADDED from C:\Users\NBIT02\Desktop\Tecsq_GeoIntel\app\src\main\AndroidManifest.xml:136:13-62
service#com.tecsq.geointel.GeoIntelStarter
ADDED from C:\Users\NBIT02\Desktop\Tecsq_GeoIntel\app\src\main\AndroidManifest.xml:141:9-145:19
	android:enabled
		ADDED from C:\Users\NBIT02\Desktop\Tecsq_GeoIntel\app\src\main\AndroidManifest.xml:143:13-35
	android:exported
		ADDED from C:\Users\NBIT02\Desktop\Tecsq_GeoIntel\app\src\main\AndroidManifest.xml:144:13-36
	android:name
		ADDED from C:\Users\NBIT02\Desktop\Tecsq_GeoIntel\app\src\main\AndroidManifest.xml:142:13-62
activity#com.google.android.gms.common.api.GoogleApiActivity
ADDED from [com.google.android.gms:play-services-base:10.0.1] C:\Users\NBIT02\.android\build-cache\481f62424972e603abd130b2a3bd13b150f3cbeb\output\AndroidManifest.xml:19:9-172
	android:exported
		ADDED from [com.google.android.gms:play-services-base:10.0.1] C:\Users\NBIT02\.android\build-cache\481f62424972e603abd130b2a3bd13b150f3cbeb\output\AndroidManifest.xml:19:146-170
	android:theme
		ADDED from [com.google.android.gms:play-services-base:10.0.1] C:\Users\NBIT02\.android\build-cache\481f62424972e603abd130b2a3bd13b150f3cbeb\output\AndroidManifest.xml:19:86-145
	android:name
		ADDED from [com.google.android.gms:play-services-base:10.0.1] C:\Users\NBIT02\.android\build-cache\481f62424972e603abd130b2a3bd13b150f3cbeb\output\AndroidManifest.xml:19:19-85
uses-permission#android.permission.WAKE_LOCK
ADDED from [com.google.firebase:firebase-analytics:10.0.1] C:\Users\NBIT02\.android\build-cache\f6a01542613177350a2ee9e4bd8eb27c5194554f\output\AndroidManifest.xml:22:5-67
MERGED from [com.google.firebase:firebase-analytics-impl:10.0.1] C:\Users\NBIT02\.android\build-cache\2a2dd5bc308708a70d7b56c09c6f9e6d238f297b\output\AndroidManifest.xml:22:5-67
MERGED from [com.google.firebase:firebase-iid:10.0.1] C:\Users\NBIT02\.android\build-cache\a6c4472e0ce62e0c2b82459dce65c276bfb64e90\output\AndroidManifest.xml:21:5-67
	android:name
		ADDED from [com.google.firebase:firebase-analytics:10.0.1] C:\Users\NBIT02\.android\build-cache\f6a01542613177350a2ee9e4bd8eb27c5194554f\output\AndroidManifest.xml:22:22-65
receiver#com.google.android.gms.measurement.AppMeasurementReceiver
ADDED from [com.google.firebase:firebase-analytics:10.0.1] C:\Users\NBIT02\.android\build-cache\f6a01542613177350a2ee9e4bd8eb27c5194554f\output\AndroidManifest.xml:25:7-26:18
MERGED from [com.google.firebase:firebase-analytics-impl:10.0.1] C:\Users\NBIT02\.android\build-cache\2a2dd5bc308708a70d7b56c09c6f9e6d238f297b\output\AndroidManifest.xml:25:7-26:18
	android:enabled
		ADDED from [com.google.firebase:firebase-analytics:10.0.1] C:\Users\NBIT02\.android\build-cache\f6a01542613177350a2ee9e4bd8eb27c5194554f\output\AndroidManifest.xml:25:90-112
	android:exported
		ADDED from [com.google.firebase:firebase-analytics:10.0.1] C:\Users\NBIT02\.android\build-cache\f6a01542613177350a2ee9e4bd8eb27c5194554f\output\AndroidManifest.xml:25:113-137
	android:name
		ADDED from [com.google.firebase:firebase-analytics:10.0.1] C:\Users\NBIT02\.android\build-cache\f6a01542613177350a2ee9e4bd8eb27c5194554f\output\AndroidManifest.xml:25:17-89
receiver#com.google.android.gms.measurement.AppMeasurementInstallReferrerReceiver
ADDED from [com.google.firebase:firebase-analytics:10.0.1] C:\Users\NBIT02\.android\build-cache\f6a01542613177350a2ee9e4bd8eb27c5194554f\output\AndroidManifest.xml:27:7-31:18
	android:enabled
		ADDED from [com.google.firebase:firebase-analytics:10.0.1] C:\Users\NBIT02\.android\build-cache\f6a01542613177350a2ee9e4bd8eb27c5194554f\output\AndroidManifest.xml:27:162-184
	android:permission
		ADDED from [com.google.firebase:firebase-analytics:10.0.1] C:\Users\NBIT02\.android\build-cache\f6a01542613177350a2ee9e4bd8eb27c5194554f\output\AndroidManifest.xml:27:105-161
	android:name
		ADDED from [com.google.firebase:firebase-analytics:10.0.1] C:\Users\NBIT02\.android\build-cache\f6a01542613177350a2ee9e4bd8eb27c5194554f\output\AndroidManifest.xml:27:17-104
intent-filter#com.android.vending.INSTALL_REFERRER
ADDED from [com.google.firebase:firebase-analytics:10.0.1] C:\Users\NBIT02\.android\build-cache\f6a01542613177350a2ee9e4bd8eb27c5194554f\output\AndroidManifest.xml:28:11-30:27
action#com.android.vending.INSTALL_REFERRER
ADDED from [com.google.firebase:firebase-analytics:10.0.1] C:\Users\NBIT02\.android\build-cache\f6a01542613177350a2ee9e4bd8eb27c5194554f\output\AndroidManifest.xml:29:15-76
	android:name
		ADDED from [com.google.firebase:firebase-analytics:10.0.1] C:\Users\NBIT02\.android\build-cache\f6a01542613177350a2ee9e4bd8eb27c5194554f\output\AndroidManifest.xml:29:23-74
service#com.google.android.gms.measurement.AppMeasurementService
ADDED from [com.google.firebase:firebase-analytics:10.0.1] C:\Users\NBIT02\.android\build-cache\f6a01542613177350a2ee9e4bd8eb27c5194554f\output\AndroidManifest.xml:32:7-137
MERGED from [com.google.firebase:firebase-analytics-impl:10.0.1] C:\Users\NBIT02\.android\build-cache\2a2dd5bc308708a70d7b56c09c6f9e6d238f297b\output\AndroidManifest.xml:27:7-137
	android:enabled
		ADDED from [com.google.firebase:firebase-analytics:10.0.1] C:\Users\NBIT02\.android\build-cache\f6a01542613177350a2ee9e4bd8eb27c5194554f\output\AndroidManifest.xml:32:88-110
	android:exported
		ADDED from [com.google.firebase:firebase-analytics:10.0.1] C:\Users\NBIT02\.android\build-cache\f6a01542613177350a2ee9e4bd8eb27c5194554f\output\AndroidManifest.xml:32:111-135
	android:name
		ADDED from [com.google.firebase:firebase-analytics:10.0.1] C:\Users\NBIT02\.android\build-cache\f6a01542613177350a2ee9e4bd8eb27c5194554f\output\AndroidManifest.xml:32:16-87
uses-permission#com.google.android.c2dm.permission.RECEIVE
ADDED from [com.google.firebase:firebase-iid:10.0.1] C:\Users\NBIT02\.android\build-cache\a6c4472e0ce62e0c2b82459dce65c276bfb64e90\output\AndroidManifest.xml:22:5-81
	android:name
		ADDED from [com.google.firebase:firebase-iid:10.0.1] C:\Users\NBIT02\.android\build-cache\a6c4472e0ce62e0c2b82459dce65c276bfb64e90\output\AndroidManifest.xml:22:22-79
permission#${applicationId}.permission.C2D_MESSAGE
ADDED from [com.google.firebase:firebase-iid:10.0.1] C:\Users\NBIT02\.android\build-cache\a6c4472e0ce62e0c2b82459dce65c276bfb64e90\output\AndroidManifest.xml:24:5-109
	android:protectionLevel
		ADDED from [com.google.firebase:firebase-iid:10.0.1] C:\Users\NBIT02\.android\build-cache\a6c4472e0ce62e0c2b82459dce65c276bfb64e90\output\AndroidManifest.xml:24:72-107
	android:name
		ADDED from [com.google.firebase:firebase-iid:10.0.1] C:\Users\NBIT02\.android\build-cache\a6c4472e0ce62e0c2b82459dce65c276bfb64e90\output\AndroidManifest.xml:24:17-71
uses-permission#${applicationId}.permission.C2D_MESSAGE
ADDED from [com.google.firebase:firebase-iid:10.0.1] C:\Users\NBIT02\.android\build-cache\a6c4472e0ce62e0c2b82459dce65c276bfb64e90\output\AndroidManifest.xml:26:5-78
	android:name
		ADDED from [com.google.firebase:firebase-iid:10.0.1] C:\Users\NBIT02\.android\build-cache\a6c4472e0ce62e0c2b82459dce65c276bfb64e90\output\AndroidManifest.xml:26:22-76
receiver#com.google.firebase.iid.FirebaseInstanceIdReceiver
ADDED from [com.google.firebase:firebase-iid:10.0.1] C:\Users\NBIT02\.android\build-cache\a6c4472e0ce62e0c2b82459dce65c276bfb64e90\output\AndroidManifest.xml:30:9-36:20
	android:exported
		ADDED from [com.google.firebase:firebase-iid:10.0.1] C:\Users\NBIT02\.android\build-cache\a6c4472e0ce62e0c2b82459dce65c276bfb64e90\output\AndroidManifest.xml:30:85-108
	android:permission
		ADDED from [com.google.firebase:firebase-iid:10.0.1] C:\Users\NBIT02\.android\build-cache\a6c4472e0ce62e0c2b82459dce65c276bfb64e90\output\AndroidManifest.xml:30:109-169
	android:name
		ADDED from [com.google.firebase:firebase-iid:10.0.1] C:\Users\NBIT02\.android\build-cache\a6c4472e0ce62e0c2b82459dce65c276bfb64e90\output\AndroidManifest.xml:30:19-84
intent-filter#${applicationId}+com.google.android.c2dm.intent.RECEIVE+com.google.android.c2dm.intent.REGISTRATION
ADDED from [com.google.firebase:firebase-iid:10.0.1] C:\Users\NBIT02\.android\build-cache\a6c4472e0ce62e0c2b82459dce65c276bfb64e90\output\AndroidManifest.xml:31:13-35:29
action#com.google.android.c2dm.intent.RECEIVE
ADDED from [com.google.firebase:firebase-iid:10.0.1] C:\Users\NBIT02\.android\build-cache\a6c4472e0ce62e0c2b82459dce65c276bfb64e90\output\AndroidManifest.xml:32:17-80
	android:name
		ADDED from [com.google.firebase:firebase-iid:10.0.1] C:\Users\NBIT02\.android\build-cache\a6c4472e0ce62e0c2b82459dce65c276bfb64e90\output\AndroidManifest.xml:32:25-78
action#com.google.android.c2dm.intent.REGISTRATION
ADDED from [com.google.firebase:firebase-iid:10.0.1] C:\Users\NBIT02\.android\build-cache\a6c4472e0ce62e0c2b82459dce65c276bfb64e90\output\AndroidManifest.xml:33:17-85
	android:name
		ADDED from [com.google.firebase:firebase-iid:10.0.1] C:\Users\NBIT02\.android\build-cache\a6c4472e0ce62e0c2b82459dce65c276bfb64e90\output\AndroidManifest.xml:33:25-83
category#${applicationId}
ADDED from [com.google.firebase:firebase-iid:10.0.1] C:\Users\NBIT02\.android\build-cache\a6c4472e0ce62e0c2b82459dce65c276bfb64e90\output\AndroidManifest.xml:34:17-60
	android:name
		ADDED from [com.google.firebase:firebase-iid:10.0.1] C:\Users\NBIT02\.android\build-cache\a6c4472e0ce62e0c2b82459dce65c276bfb64e90\output\AndroidManifest.xml:34:27-58
receiver#com.google.firebase.iid.FirebaseInstanceIdInternalReceiver
ADDED from [com.google.firebase:firebase-iid:10.0.1] C:\Users\NBIT02\.android\build-cache\a6c4472e0ce62e0c2b82459dce65c276bfb64e90\output\AndroidManifest.xml:40:9-119
	android:exported
		ADDED from [com.google.firebase:firebase-iid:10.0.1] C:\Users\NBIT02\.android\build-cache\a6c4472e0ce62e0c2b82459dce65c276bfb64e90\output\AndroidManifest.xml:40:93-117
	android:name
		ADDED from [com.google.firebase:firebase-iid:10.0.1] C:\Users\NBIT02\.android\build-cache\a6c4472e0ce62e0c2b82459dce65c276bfb64e90\output\AndroidManifest.xml:40:19-92
service#com.google.firebase.iid.FirebaseInstanceIdService
ADDED from [com.google.firebase:firebase-iid:10.0.1] C:\Users\NBIT02\.android\build-cache\a6c4472e0ce62e0c2b82459dce65c276bfb64e90\output\AndroidManifest.xml:44:9-48:19
	android:exported
		ADDED from [com.google.firebase:firebase-iid:10.0.1] C:\Users\NBIT02\.android\build-cache\a6c4472e0ce62e0c2b82459dce65c276bfb64e90\output\AndroidManifest.xml:44:83-106
	android:name
		ADDED from [com.google.firebase:firebase-iid:10.0.1] C:\Users\NBIT02\.android\build-cache\a6c4472e0ce62e0c2b82459dce65c276bfb64e90\output\AndroidManifest.xml:44:18-82
intent-filter#com.google.firebase.INSTANCE_ID_EVENT
ADDED from [com.google.firebase:firebase-iid:10.0.1] C:\Users\NBIT02\.android\build-cache\a6c4472e0ce62e0c2b82459dce65c276bfb64e90\output\AndroidManifest.xml:45:13-47:29
	android:priority
		ADDED from [com.google.firebase:firebase-iid:10.0.1] C:\Users\NBIT02\.android\build-cache\a6c4472e0ce62e0c2b82459dce65c276bfb64e90\output\AndroidManifest.xml:45:28-51
action#com.google.firebase.INSTANCE_ID_EVENT
ADDED from [com.google.firebase:firebase-iid:10.0.1] C:\Users\NBIT02\.android\build-cache\a6c4472e0ce62e0c2b82459dce65c276bfb64e90\output\AndroidManifest.xml:46:17-79
	android:name
		ADDED from [com.google.firebase:firebase-iid:10.0.1] C:\Users\NBIT02\.android\build-cache\a6c4472e0ce62e0c2b82459dce65c276bfb64e90\output\AndroidManifest.xml:46:25-77
provider#com.google.firebase.provider.FirebaseInitProvider
ADDED from [com.google.firebase:firebase-common:10.0.1] C:\Users\NBIT02\.android\build-cache\64db97b0aba93474415b1181b3c83913d3d0bddb\output\AndroidManifest.xml:6:9-194
	android:authorities
		ADDED from [com.google.firebase:firebase-common:10.0.1] C:\Users\NBIT02\.android\build-cache\64db97b0aba93474415b1181b3c83913d3d0bddb\output\AndroidManifest.xml:6:19-78
	android:exported
		ADDED from [com.google.firebase:firebase-common:10.0.1] C:\Users\NBIT02\.android\build-cache\64db97b0aba93474415b1181b3c83913d3d0bddb\output\AndroidManifest.xml:6:144-168
	android:initOrder
		ADDED from [com.google.firebase:firebase-common:10.0.1] C:\Users\NBIT02\.android\build-cache\64db97b0aba93474415b1181b3c83913d3d0bddb\output\AndroidManifest.xml:6:169-192
	android:name
		ADDED from [com.google.firebase:firebase-common:10.0.1] C:\Users\NBIT02\.android\build-cache\64db97b0aba93474415b1181b3c83913d3d0bddb\output\AndroidManifest.xml:6:79-143
meta-data#com.google.android.gms.version
ADDED from [com.google.android.gms:play-services-basement:10.0.1] C:\Users\NBIT02\.android\build-cache\0dd876444ffe7fa3c583b19d88e7882201bfb24a\output\AndroidManifest.xml:20:9-121
	android:value
		ADDED from [com.google.android.gms:play-services-basement:10.0.1] C:\Users\NBIT02\.android\build-cache\0dd876444ffe7fa3c583b19d88e7882201bfb24a\output\AndroidManifest.xml:20:66-119
	android:name
		ADDED from [com.google.android.gms:play-services-basement:10.0.1] C:\Users\NBIT02\.android\build-cache\0dd876444ffe7fa3c583b19d88e7882201bfb24a\output\AndroidManifest.xml:20:20-65
